…
You can specify which datasets are returned, on which date.

``` r
dc_team <- get_dc_datasets(s3_conn, "team_dim", Sys.Date() - 7)
dc_team
#> $team_dim
#> # A tibble: 63 x 6
#>       id name          slug               created_date updated_date deleted_date
#>    <dbl> <chr>         <chr>              <date>       <date>       <date>      
#>  1 17124 HR Team       hr-team            2021-04-20   2021-04-20   NA          
#>  2 15771 Learning Exp… learning-experien… 2021-02-11   2021-02-11   NA          
#>  3 14782 test          test-01db52b5-8ce… 2020-12-16   2020-12-16   2020-12-16  
#>  4 16659 Demand Gen    demand-gen         2021-03-26   2021-03-26   NA          
#>  5  1188 Growth        growth             2018-06-27   2019-06-12   NA          
#>  6 17756 Managers at … managers-at-my-or… 2021-06-02   2021-06-10   2021-06-10  
#>  7 19261 Assignment t… assignment-test-t… 2021-09-09   2021-09-09   NA          
#>  8  9427 Direct        direct-73a23592-3… 2020-01-27   2020-01-27   NA          
#>  9 16772 Demo          demo               2021-04-01   2021-04-01   2021-04-01  
#> 10 10684 Example       example-91371104-… 2020-03-26   2020-03-26   2020-03-26  
#> # … with 53 more rows
…
